…
``` r
pre_2016 =  readxl::read_xlsx("/Users/annie/Desktop/data science/Homework/Homework_2/HealthyHarborWaterWheelTotals2017-9-26.xlsx", sheet = 4, range = 'A2:B15') %>% 
  mutate(year = 'rep(2016,13)') 
```

``` r
prefull = rbind(pre_2017,pre_2016) %>% 
  mutate(month = as.factor(Month)) 
levels(prefull$month) = month.name
prefull
```

    ## # A tibble: 22 x 4
    ##    Month Total year         month   
    ##    <dbl> <dbl> <chr>        <fct>   
    ##  1     1  2.34 rep(2017,13) January 
    ##  2     2  1.46 rep(2017,13) February
    ##  3     3  3.57 rep(2017,13) March   
    ##  4     4  3.99 rep(2017,13) April   
    ##  5     5  5.64 rep(2017,13) May     
    ##  6     6  1.4  rep(2017,13) June    
    ##  7     7  7.09 rep(2017,13) July    
    ##  8     8  4.44 rep(2017,13) August  
    ##  9    NA 29.9  rep(2017,13) <NA>    
    ## 10     1  3.23 rep(2016,13) January 
    ## # ... with 12 more rows
…
